\relax 
\providecommand\hyper@newdestlabel[2]{}
\providecommand\HyperFirstAtBeginDocument{\AtBeginDocument}
\HyperFirstAtBeginDocument{\ifx\hyper@anchor\@undefined
\global\let\oldcontentsline\contentsline
\gdef\contentsline#1#2#3#4{\oldcontentsline{#1}{#2}{#3}}
\global\let\oldnewlabel\newlabel
\gdef\newlabel#1#2{\newlabelxx{#1}#2}
\gdef\newlabelxx#1#2#3#4#5#6{\oldnewlabel{#1}{{#2}{#3}}}
\AtEndDocument{\ifx\hyper@anchor\@undefined
\let\contentsline\oldcontentsline
\let\newlabel\oldnewlabel
\fi}
\fi}
\global\let\hyper@last\relax 
\gdef\HyperFirstAtBeginDocument#1{#1}
\providecommand\HyField@AuxAddToFields[1]{}
\providecommand\HyField@AuxAddToCoFields[2]{}
\@writefile{toc}{\beamer@endinputifotherversion {3.24pt}}
\@writefile{nav}{\beamer@endinputifotherversion {3.24pt}}
\@writefile{nav}{\headcommand {\slideentry {0}{0}{1}{1/1}{}{0}}}
\@writefile{nav}{\headcommand {\beamer@framepages {1}{1}}}
\@writefile{nav}{\headcommand {\slideentry {0}{0}{2}{2/2}{}{0}}}
\@writefile{nav}{\headcommand {\beamer@framepages {2}{2}}}
\@writefile{nav}{\headcommand {\slideentry {0}{0}{3}{3/3}{}{0}}}
\@writefile{nav}{\headcommand {\beamer@framepages {3}{3}}}
\providecommand*\caption@xref[2]{\@setref\relax\@undefined{#1}}
\newlabel{fig:cfg_loops}{{\caption@xref {fig:cfg_loops}{ on input line 43}}{4}{}{Doc-Start}{}}
\@writefile{snm}{\beamer@slide {fig:cfg_loops}{4}}
\@writefile{nav}{\headcommand {\slideentry {0}{0}{4}{4/4}{}{0}}}
\@writefile{nav}{\headcommand {\beamer@framepages {4}{4}}}
\newlabel{fig:cfg_loops}{{\caption@xref {fig:cfg_loops}{ on input line 51}}{5}{}{Doc-Start}{}}
\@writefile{snm}{\beamer@slide {fig:cfg_loops}{5}}
\@writefile{nav}{\headcommand {\slideentry {0}{0}{5}{5/5}{}{0}}}
\@writefile{nav}{\headcommand {\beamer@framepages {5}{5}}}
\@writefile{nav}{\headcommand {\slideentry {0}{0}{6}{6/6}{}{0}}}
\@writefile{nav}{\headcommand {\beamer@framepages {6}{6}}}
\newlabel{fig:graph1}{{1a}{7}{Graph $G$\relax }{Doc-Start}{}}
\@writefile{snm}{\beamer@slide {fig:graph1}{7}}
\newlabel{sub@fig:graph1}{{a}{7}{Graph $G$\relax }{Doc-Start}{}}
\@writefile{snm}{\beamer@slide {sub@fig:graph1}{7}}
\newlabel{fig:graph2}{{1b}{7}{Graph $H$\relax }{Doc-Start}{}}
\@writefile{snm}{\beamer@slide {fig:graph2}{7}}
\newlabel{sub@fig:graph2}{{b}{7}{Graph $H$\relax }{Doc-Start}{}}
\@writefile{snm}{\beamer@slide {sub@fig:graph2}{7}}
\newlabel{fig:graphs}{{1}{7}{Two simple control flow graphs. The ``true'' and ``false'' labels signify that the block has a branch instruction at its end, while unconditional jumps are denoted by a single edge without a label.\relax }{Doc-Start}{}}
\@writefile{snm}{\beamer@slide {fig:graphs}{7}}
\@writefile{nav}{\headcommand {\slideentry {0}{0}{7}{7/7}{}{0}}}
\@writefile{nav}{\headcommand {\beamer@framepages {7}{7}}}
\@writefile{nav}{\headcommand {\slideentry {0}{0}{8}{8/8}{}{0}}}
\@writefile{nav}{\headcommand {\beamer@framepages {8}{8}}}
\@writefile{nav}{\headcommand {\slideentry {0}{0}{9}{9/9}{}{0}}}
\@writefile{nav}{\headcommand {\beamer@framepages {9}{9}}}
\newlabel{fig:cfg_loops}{{\caption@xref {fig:cfg_loops}{ on input line 109}}{10}{}{Doc-Start}{}}
\@writefile{snm}{\beamer@slide {fig:cfg_loops}{10}}
\@writefile{nav}{\headcommand {\slideentry {0}{0}{10}{10/10}{}{0}}}
\@writefile{nav}{\headcommand {\beamer@framepages {10}{10}}}
\@writefile{nav}{\headcommand {\slideentry {0}{0}{11}{11/11}{}{0}}}
\@writefile{nav}{\headcommand {\beamer@framepages {11}{11}}}
\newlabel{fig:cfg_loops}{{\caption@xref {fig:cfg_loops}{ on input line 127}}{12}{}{Doc-Start}{}}
\@writefile{snm}{\beamer@slide {fig:cfg_loops}{12}}
\@writefile{nav}{\headcommand {\slideentry {0}{0}{12}{12/12}{}{0}}}
\@writefile{nav}{\headcommand {\beamer@framepages {12}{12}}}
\newlabel{fig:cfg_loops}{{\caption@xref {fig:cfg_loops}{ on input line 151}}{13}{}{Doc-Start}{}}
\@writefile{snm}{\beamer@slide {fig:cfg_loops}{13}}
\newlabel{fig:cfg_loops}{{\caption@xref {fig:cfg_loops}{ on input line 151}}{13}{}{Doc-Start}{}}
\@writefile{snm}{\beamer@slide {fig:cfg_loops}{13}}
\@writefile{nav}{\headcommand {\slideentry {0}{0}{13}{13/13}{}{0}}}
\@writefile{nav}{\headcommand {\beamer@framepages {13}{13}}}
\@writefile{nav}{\headcommand {\slideentry {0}{0}{14}{14/14}{}{0}}}
\@writefile{nav}{\headcommand {\beamer@framepages {14}{14}}}
\newlabel{fig:cfg_loops}{{\caption@xref {fig:cfg_loops}{ on input line 167}}{15}{}{Doc-Start}{}}
\@writefile{snm}{\beamer@slide {fig:cfg_loops}{15}}
\@writefile{nav}{\headcommand {\slideentry {0}{0}{15}{15/15}{}{0}}}
\@writefile{nav}{\headcommand {\beamer@framepages {15}{15}}}
\@writefile{nav}{\headcommand {\slideentry {0}{0}{16}{16/16}{}{0}}}
\@writefile{nav}{\headcommand {\beamer@framepages {16}{16}}}
\newlabel{fig:ex_defs_cumulative}{{2}{17}{The $x$ axis shows the number of used externally defined values, which measures loop independence from context - the higher the number the less likely it is profitable to merge the loop. Blue/red lines: cumulative sum of all instructions/basic blocks in loops across SPEC2006, for every $x$.\relax }{Doc-Start}{}}
\@writefile{snm}{\beamer@slide {fig:ex_defs_cumulative}{17}}
\@writefile{nav}{\headcommand {\slideentry {0}{0}{17}{17/17}{}{0}}}
\@writefile{nav}{\headcommand {\beamer@framepages {17}{17}}}
\newlabel{fig:ex_defs_loops}{{3}{18}{Code size, parameters targeting 'common case loops'.\relax }{Doc-Start}{}}
\@writefile{snm}{\beamer@slide {fig:ex_defs_loops}{18}}
\@writefile{nav}{\headcommand {\slideentry {0}{0}{18}{18/18}{}{0}}}
\@writefile{nav}{\headcommand {\beamer@framepages {18}{18}}}
\newlabel{fig:ex_defs_loops}{{4}{19}{Run time parameters targeting 'common case loops'.\relax }{Doc-Start}{}}
\@writefile{snm}{\beamer@slide {fig:ex_defs_loops}{19}}
\@writefile{nav}{\headcommand {\slideentry {0}{0}{19}{19/19}{}{0}}}
\@writefile{nav}{\headcommand {\beamer@framepages {19}{19}}}
\@writefile{nav}{\headcommand {\slideentry {0}{0}{20}{20/20}{}{0}}}
\@writefile{nav}{\headcommand {\beamer@framepages {20}{20}}}
\@writefile{nav}{\headcommand {\beamer@partpages {1}{20}}}
\@writefile{nav}{\headcommand {\beamer@subsectionpages {1}{20}}}
\@writefile{nav}{\headcommand {\beamer@sectionpages {1}{20}}}
\@writefile{nav}{\headcommand {\beamer@documentpages {20}}}
\@writefile{nav}{\headcommand {\def \inserttotalframenumber {20}}}
